{ "photos": { "page": 1, "pages": 4, "perpage": 100, "total": "321", 
    "photo": [
      { "id": "30093952718", "owner": "61318846@N03", "secret": "72fec81a1b", "server": "930", "farm": 1, "title": "A Welsh blackbird", "ispublic": 1, "isfriend": 0, "isfamily": 0 },
      { "id": "42937318165", "owner": "61318846@N03", "secret": "928bdd5e03", "server": "862", "farm": 1, "title": "Consider me", "ispublic": 1, "isfriend": 0, "isfamily": 0 },
      { "id": "41840736840", "owner": "61318846@N03", "secret": "3b717824c5", "server": "853", "farm": 1, "title": "Sailing", "ispublic": 1, "isfriend": 0, "isfamily": 0 },
      { "id": "42919390794", "owner": "61318846@N03", "secret": "113885f4f4", "server": "842", "farm": 1, "title": "Hanging beauties in Göteborg", "ispublic": 1, "isfriend": 0, "isfamily": 0 },
      { "id": "29728397118", "owner": "61318846@N03", "secret": "691c24ccaf", "server": "849", "farm": 1, "title": "A beautiful explorer", "ispublic": 1, "isfriend": 0, "isfamily": 0 },
      { "id": "41747298150", "owner": "61318846@N03", "secret": "7f1acf7a34", "server": "1801", "farm": 2, "title": "Sunset in Stockholm", "ispublic": 1, "isfriend": 0, "isfamily": 0 },
      { "id": "42613251175", "owner": "61318846@N03", "secret": "c2ed86ae3b", "server": "851", "farm": 1, "title": "In the square fountain", "ispublic": 1, "isfriend": 0, "isfamily": 0 },
      { "id": "43379085211", "owner": "61318846@N03", "secret": "4e07e46aa8", "server": "919", "farm": 1, "title": "The hazy waterfall", "ispublic": 1, "isfriend": 0, "isfamily": 0 },
      { "id": "42620142354", "owner": "61318846@N03", "secret": "5594fcb19c", "server": "1829", "farm": 2, "title": "The falls of the Añisclo canyon", "ispublic": 1, "isfriend": 0, "isfamily": 0 },
      { "id": "41249659700", "owner": "61318846@N03", "secret": "250e4dc867", "server": "1790", "farm": 2, "title": "View of Rome", "ispublic": 1, "isfriend": 0, "isfamily": 0 },
      { "id": "42934779811", "owner": "61318846@N03", "secret": "31a03fc276", "server": "1786", "farm": 2, "title": "Capparis spinosa (Flinders rose)", "ispublic": 1, "isfriend": 0, "isfamily": 0 },
      { "id": "29036461228", "owner": "61318846@N03", "secret": "7c59df21bd", "server": "900", "farm": 1, "title": "Sunset in Rome", "ispublic": 1, "isfriend": 0, "isfamily": 0 },
      { "id": "27145702957", "owner": "61318846@N03", "secret": "a0a0b21e20", "server": "908", "farm": 1, "title": "Solitude", "ispublic": 1, "isfriend": 0, "isfamily": 0 },
      { "id": "41102173055", "owner": "61318846@N03", "secret": "3f19be12ce", "server": "828", "farm": 1, "title": "Subtle wind", "ispublic": 1, "isfriend": 0, "isfamily": 0 },
      { "id": "27014013937", "owner": "61318846@N03", "secret": "da68be635d", "server": "982", "farm": 1, "title": "Unspoiled river", "ispublic": 1, "isfriend": 0, "isfamily": 0 },
      { "id": "27978065058", "owner": "61318846@N03", "secret": "0690f18d9c", "server": "908", "farm": 1, "title": "The lamb of Corris", "ispublic": 1, "isfriend": 0, "isfamily": 0 },
      { "id": "26967533297", "owner": "61318846@N03", "secret": "ee826283b9", "server": "980", "farm": 1, "title": "View of the waterfall in the quarry", "ispublic": 1, "isfriend": 0, "isfamily": 0 },
      { "id": "40984346514", "owner": "61318846@N03", "secret": "06a7804838", "server": "975", "farm": 1, "title": "Meconopsis cambrica study", "ispublic": 1, "isfriend": 0, "isfamily": 0 },
      { "id": "40940384184", "owner": "61318846@N03", "secret": "c9f1c79d8d", "server": "840", "farm": 1, "title": "Two brothers", "ispublic": 1, "isfriend": 0, "isfamily": 0 },
      { "id": "25583501227", "owner": "61318846@N03", "secret": "3aafe9822b", "server": "4623", "farm": 5, "title": "Human expression", "ispublic": 1, "isfriend": 0, "isfamily": 0 },
      { "id": "40369521901", "owner": "61318846@N03", "secret": "6b8e06c46d", "server": "4698", "farm": 5, "title": "You won't be able to escape", "ispublic": 1, "isfriend": 0, "isfamily": 0 },
      { "id": "40242922011", "owner": "61318846@N03", "secret": "67dc9673c1", "server": "4753", "farm": 5, "title": "Nostalgia", "ispublic": 1, "isfriend": 0, "isfamily": 0 },
      { "id": "26349769328", "owner": "61318846@N03", "secret": "b28c78e7fc", "server": "4652", "farm": 5, "title": "Promising future", "ispublic": 1, "isfriend": 0, "isfamily": 0 },
      { "id": "25279714457", "owner": "61318846@N03", "secret": "c4b4512627", "server": "4631", "farm": 5, "title": "The mill in the springs", "ispublic": 1, "isfriend": 0, "isfamily": 0 },
      { "id": "26216177878", "owner": "61318846@N03", "secret": "1c9962642f", "server": "4702", "farm": 5, "title": "Seagulls in silence", "ispublic": 1, "isfriend": 0, "isfamily": 0 },
      { "id": "40021681702", "owner": "61318846@N03", "secret": "c03100c35a", "server": "4759", "farm": 5, "title": "Juniper Springs", "ispublic": 1, "isfriend": 0, "isfamily": 0 },
      { "id": "39117356985", "owner": "61318846@N03", "secret": "8a51d8d6ca", "server": "4670", "farm": 5, "title": "The 31st of January 2018 Super Moon", "ispublic": 1, "isfriend": 0, "isfamily": 0 },
      { "id": "26125841138", "owner": "61318846@N03", "secret": "0ea6da5942", "server": "4658", "farm": 5, "title": "Thinking about the future", "ispublic": 1, "isfriend": 0, "isfamily": 0 },
      { "id": "39079075735", "owner": "61318846@N03", "secret": "f723be7ff5", "server": "4745", "farm": 5, "title": "Palm leaf experiment", "ispublic": 1, "isfriend": 0, "isfamily": 0 },
      { "id": "39923976372", "owner": "61318846@N03", "secret": "c3ed475e1f", "server": "4711", "farm": 5, "title": "The wonderful ospreys of Bokeelia", "ispublic": 1, "isfriend": 0, "isfamily": 0 },
      { "id": "28165326449", "owner": "61318846@N03", "secret": "03aa2afd67", "server": "4696", "farm": 5, "title": "Meditative seagull", "ispublic": 1, "isfriend": 0, "isfamily": 0 },
      { "id": "39045678695", "owner": "61318846@N03", "secret": "8c4496456d", "server": "4699", "farm": 5, "title": "Beautiful arrangement", "ispublic": 1, "isfriend": 0, "isfamily": 0 },
      { "id": "39927437671", "owner": "61318846@N03", "secret": "cb0a7af394", "server": "4740", "farm": 5, "title": "In the Everglades", "ispublic": 1, "isfriend": 0, "isfamily": 0 },
      { "id": "39885846481", "owner": "61318846@N03", "secret": "967b83e500", "server": "4663", "farm": 5, "title": "Kitesurf in El Delta del Ebro", "ispublic": 1, "isfriend": 0, "isfamily": 0 },
      { "id": "24952800757", "owner": "61318846@N03", "secret": "08784ca7c2", "server": "4614", "farm": 5, "title": "Sunset in Ebro's delta", "ispublic": 1, "isfriend": 0, "isfamily": 0 },
      { "id": "39752235261", "owner": "61318846@N03", "secret": "7d2df51c3b", "server": "4714", "farm": 5, "title": "Beautiful family", "ispublic": 1, "isfriend": 0, "isfamily": 0 },
      { "id": "38846633235", "owner": "61318846@N03", "secret": "56d67cd3c6", "server": "4676", "farm": 5, "title": "Misterious street", "ispublic": 1, "isfriend": 0, "isfamily": 0 },
      { "id": "39727129431", "owner": "61318846@N03", "secret": "28181c8ee1", "server": "4625", "farm": 5, "title": "Lonely man", "ispublic": 1, "isfriend": 0, "isfamily": 0 },
      { "id": "39661606232", "owner": "61318846@N03", "secret": "e4de02ea85", "server": "4662", "farm": 5, "title": "Covered lady", "ispublic": 1, "isfriend": 0, "isfamily": 0 },
      { "id": "38972919904", "owner": "61318846@N03", "secret": "a80ed8e93e", "server": "4716", "farm": 5, "title": "The water depot of Mazagao", "ispublic": 1, "isfriend": 0, "isfamily": 0 },
      { "id": "39622920732", "owner": "61318846@N03", "secret": "c990f870cc", "server": "4625", "farm": 5, "title": "Narrow street in La Cité Portugaise", "ispublic": 1, "isfriend": 0, "isfamily": 0 },
      { "id": "39637488381", "owner": "61318846@N03", "secret": "7d13e05201", "server": "4708", "farm": 5, "title": "The tower of the storks", "ispublic": 1, "isfriend": 0, "isfamily": 0 },
      { "id": "38723064255", "owner": "61318846@N03", "secret": "bacc8b9271", "server": "4619", "farm": 5, "title": "Bird arrangement in the Roman ruins of Chella", "ispublic": 1, "isfriend": 0, "isfamily": 0 },
      { "id": "24694140617", "owner": "61318846@N03", "secret": "91949bed90", "server": "4689", "farm": 5, "title": "What those eyes have seen", "ispublic": 1, "isfriend": 0, "isfamily": 0 },
      { "id": "27674885749", "owner": "61318846@N03", "secret": "379f771e8b", "server": "4637", "farm": 5, "title": "Just the silence in Karekare Beach", "ispublic": 1, "isfriend": 0, "isfamily": 0 },
      { "id": "27563875049", "owner": "61318846@N03", "secret": "4cf7c9fc05", "server": "4738", "farm": 5, "title": "Presence surrounded by freshness", "ispublic": 1, "isfriend": 0, "isfamily": 0 },
      { "id": "25398324948", "owner": "61318846@N03", "secret": "a84bf4121b", "server": "4633", "farm": 5, "title": "Asymmetric", "ispublic": 1, "isfriend": 0, "isfamily": 0 },
      { "id": "38339306315", "owner": "61318846@N03", "secret": "90ab700cac", "server": "4736", "farm": 5, "title": "Silence XII", "ispublic": 1, "isfriend": 0, "isfamily": 0 },
      { "id": "24197568327", "owner": "61318846@N03", "secret": "7ffb05e4c5", "server": "4688", "farm": 5, "title": "Beautiful visitor", "ispublic": 1, "isfriend": 0, "isfamily": 0 },
      { "id": "38957888712", "owner": "61318846@N03", "secret": "64a974423b", "server": "4686", "farm": 5, "title": "Landscape LVIII", "ispublic": 1, "isfriend": 0, "isfamily": 0 },
      { "id": "27169946199", "owner": "61318846@N03", "secret": "d60f20b5b5", "server": "4638", "farm": 5, "title": "Strange pine in a silent place", "ispublic": 1, "isfriend": 0, "isfamily": 0 },
      { "id": "38024363615", "owner": "61318846@N03", "secret": "d1fa8bccba", "server": "4592", "farm": 5, "title": "In the wilderness", "ispublic": 1, "isfriend": 0, "isfamily": 0 },
      { "id": "38180247294", "owner": "61318846@N03", "secret": "081aff7d22", "server": "4520", "farm": 5, "title": "Beautiful offerings", "ispublic": 1, "isfriend": 0, "isfamily": 0 },
      { "id": "38850218602", "owner": "61318846@N03", "secret": "7ac302bfee", "server": "4583", "farm": 5, "title": "View of the Mount Taranaki", "ispublic": 1, "isfriend": 0, "isfamily": 0 },
      { "id": "37910365605", "owner": "61318846@N03", "secret": "0138a07e39", "server": "4548", "farm": 5, "title": "Flourishing", "ispublic": 1, "isfriend": 0, "isfamily": 0 },
      { "id": "38043319184", "owner": "61318846@N03", "secret": "9433ecb4bf", "server": "4583", "farm": 5, "title": "I don't know what you are thinking", "ispublic": 1, "isfriend": 0, "isfamily": 0 },
      { "id": "24501961328", "owner": "61318846@N03", "secret": "b82664c311", "server": "4572", "farm": 5, "title": "Futuristic architecture", "ispublic": 1, "isfriend": 0, "isfamily": 0 },
      { "id": "37649301044", "owner": "61318846@N03", "secret": "351dacc6d2", "server": "4583", "farm": 5, "title": "As the Earth was", "ispublic": 1, "isfriend": 0, "isfamily": 0 },
      { "id": "24299369058", "owner": "61318846@N03", "secret": "2d5b26a35d", "server": "4514", "farm": 5, "title": "The act of praying", "ispublic": 1, "isfriend": 0, "isfamily": 0 },
      { "id": "37311811104", "owner": "61318846@N03", "secret": "1b1ddb5819", "server": "4475", "farm": 5, "title": "The magical forest", "ispublic": 1, "isfriend": 0, "isfamily": 0 },
      { "id": "37311490084", "owner": "61318846@N03", "secret": "f9db92abb3", "server": "4475", "farm": 5, "title": "The dragon at the top of Mount Phousi", "ispublic": 1, "isfriend": 0, "isfamily": 0 },
      { "id": "37850408161", "owner": "61318846@N03", "secret": "6cd1ef39a4", "server": "4445", "farm": 5, "title": "The ferns behind the waterfall", "ispublic": 1, "isfriend": 0, "isfamily": 0 },
      { "id": "37150511123", "owner": "61318846@N03", "secret": "8b705d30c5", "server": "4482", "farm": 5, "title": "Tui in the wilderness", "ispublic": 1, "isfriend": 0, "isfamily": 0 },
      { "id": "23967665128", "owner": "61318846@N03", "secret": "54300f5649", "server": "4482", "farm": 5, "title": "Fire is in my heart", "ispublic": 1, "isfriend": 0, "isfamily": 0 },
      { "id": "37148942703", "owner": "61318846@N03", "secret": "b7caeae944", "server": "4456", "farm": 5, "title": "I am moving with the Earth", "ispublic": 1, "isfriend": 0, "isfamily": 0 },
      { "id": "37048778453", "owner": "61318846@N03", "secret": "30da89a272", "server": "4478", "farm": 5, "title": "Silence and meditation", "ispublic": 1, "isfriend": 0, "isfamily": 0 },
      { "id": "37687431201", "owner": "61318846@N03", "secret": "f9bc8d6a5a", "server": "4500", "farm": 5, "title": "The treasure waterfall II", "ispublic": 1, "isfriend": 0, "isfamily": 0 },
      { "id": "36932490944", "owner": "61318846@N03", "secret": "542f91d274", "server": "4468", "farm": 5, "title": "The Bayon Temple Buddha", "ispublic": 1, "isfriend": 0, "isfamily": 0 },
      { "id": "37535558092", "owner": "61318846@N03", "secret": "7ef8e37959", "server": "4456", "farm": 5, "title": "Ornamental distribution", "ispublic": 1, "isfriend": 0, "isfamily": 0 },
      { "id": "23708206848", "owner": "61318846@N03", "secret": "f885ba1c2d", "server": "4506", "farm": 5, "title": "The ship", "ispublic": 1, "isfriend": 0, "isfamily": 0 },
      { "id": "37472629736", "owner": "61318846@N03", "secret": "b673b0db19", "server": "4481", "farm": 5, "title": "Reflection study in Krong Siem Reap - Cambodia", "ispublic": 1, "isfriend": 0, "isfamily": 0 },
      { "id": "37223960000", "owner": "61318846@N03", "secret": "4780f9433e", "server": "4468", "farm": 5, "title": "One day, we will not be here anymore", "ispublic": 1, "isfriend": 0, "isfamily": 0 },
      { "id": "23587656748", "owner": "61318846@N03", "secret": "8cdce23400", "server": "4445", "farm": 5, "title": "Wabi Sabi", "ispublic": 1, "isfriend": 0, "isfamily": 0 },
      { "id": "23574517578", "owner": "61318846@N03", "secret": "bee87e32ca", "server": "4404", "farm": 5, "title": "Stupas in Vientiane", "ispublic": 1, "isfriend": 0, "isfamily": 0 },
      { "id": "36716747294", "owner": "61318846@N03", "secret": "4473c8a530", "server": "4454", "farm": 5, "title": "Mathematical proportions and beauty", "ispublic": 1, "isfriend": 0, "isfamily": 0 },
      { "id": "37142794170", "owner": "61318846@N03", "secret": "974fcf288d", "server": "4413", "farm": 5, "title": "I love you mum", "ispublic": 1, "isfriend": 0, "isfamily": 0 },
      { "id": "37436542715", "owner": "61318846@N03", "secret": "65b53210a5", "server": "4479", "farm": 5, "title": "Silence in Ton Sai", "ispublic": 1, "isfriend": 0, "isfamily": 0 },
      { "id": "37193685096", "owner": "61318846@N03", "secret": "0528729703", "server": "4458", "farm": 5, "title": "Quiet night in the jungle of Laos", "ispublic": 1, "isfriend": 0, "isfamily": 0 },
      { "id": "36541125803", "owner": "61318846@N03", "secret": "0b6dc9d825", "server": "4390", "farm": 5, "title": "Impermanence", "ispublic": 1, "isfriend": 0, "isfamily": 0 },
      { "id": "37098128446", "owner": "61318846@N03", "secret": "e819dc6a17", "server": "4346", "farm": 5, "title": "Disciples", "ispublic": 1, "isfriend": 0, "isfamily": 0 },
      { "id": "37268190865", "owner": "61318846@N03", "secret": "dfaf5b5442", "server": "4385", "farm": 5, "title": "A view of Luan Prabang (Laos)", "ispublic": 1, "isfriend": 0, "isfamily": 0 },
      { "id": "36852404850", "owner": "61318846@N03", "secret": "37a4052ff8", "server": "4410", "farm": 5, "title": "Golden and black - Spirit awaits", "ispublic": 1, "isfriend": 0, "isfamily": 0 },
      { "id": "37094612291", "owner": "61318846@N03", "secret": "0cf39cc579", "server": "4370", "farm": 5, "title": "Angkor Wat Buddha with rays of light", "ispublic": 1, "isfriend": 0, "isfamily": 0 },
      { "id": "36382129754", "owner": "61318846@N03", "secret": "087f6fd108", "server": "4385", "farm": 5, "title": "Praying respectfully", "ispublic": 1, "isfriend": 0, "isfamily": 0 },
      { "id": "37065128771", "owner": "61318846@N03", "secret": "0c7c3c2f39", "server": "4442", "farm": 5, "title": "Chinatown number one", "ispublic": 1, "isfriend": 0, "isfamily": 0 },
      { "id": "36387377403", "owner": "61318846@N03", "secret": "42422a549a", "server": "4348", "farm": 5, "title": "The future society", "ispublic": 1, "isfriend": 0, "isfamily": 0 },
      { "id": "36992586306", "owner": "61318846@N03", "secret": "3e44f604ba", "server": "4409", "farm": 5, "title": "Orchid experiment", "ispublic": 1, "isfriend": 0, "isfamily": 0 },
      { "id": "37114462335", "owner": "61318846@N03", "secret": "411b5af789", "server": "4387", "farm": 5, "title": "Cambodian eyes", "ispublic": 1, "isfriend": 0, "isfamily": 0 },
      { "id": "36281556163", "owner": "61318846@N03", "secret": "018a3bde1f", "server": "4366", "farm": 5, "title": "Bayon temple royal dancer XXIV", "ispublic": 1, "isfriend": 0, "isfamily": 0 },
      { "id": "37043769375", "owner": "61318846@N03", "secret": "3eb7b3de8e", "server": "4436", "farm": 5, "title": "It's time to ignore you", "ispublic": 1, "isfriend": 0, "isfamily": 0 },
      { "id": "36584488870", "owner": "61318846@N03", "secret": "a5ed28ca64", "server": "4359", "farm": 5, "title": "Bokeh experiment LXXI", "ispublic": 1, "isfriend": 0, "isfamily": 0 },
      { "id": "36799221392", "owner": "61318846@N03", "secret": "35b03d0205", "server": "4341", "farm": 5, "title": "Nature colonization", "ispublic": 1, "isfriend": 0, "isfamily": 0 },
      { "id": "36961529475", "owner": "61318846@N03", "secret": "409c4ecfa1", "server": "4397", "farm": 5, "title": "A beautiful array of Chinese lanterns", "ispublic": 1, "isfriend": 0, "isfamily": 0 },
      { "id": "36770420262", "owner": "61318846@N03", "secret": "5ce5a999ef", "server": "4415", "farm": 5, "title": "Thinking about life in Phi Phi Don", "ispublic": 1, "isfriend": 0, "isfamily": 0 },
      { "id": "36496765620", "owner": "61318846@N03", "secret": "7f50cb6a20", "server": "4439", "farm": 5, "title": "The rock of Tonsai beach", "ispublic": 1, "isfriend": 0, "isfamily": 0 },
      { "id": "36476417870", "owner": "61318846@N03", "secret": "a4d8c3c22b", "server": "4386", "farm": 5, "title": "Two countries an a river", "ispublic": 1, "isfriend": 0, "isfamily": 0 },
      { "id": "36014776684", "owner": "61318846@N03", "secret": "2c02a6b73a", "server": "4376", "farm": 5, "title": "Sunset at Ao Nang beach", "ispublic": 1, "isfriend": 0, "isfamily": 0 },
      { "id": "36397843400", "owner": "61318846@N03", "secret": "4bc9f72c92", "server": "4411", "farm": 5, "title": "One of the five thousand", "ispublic": 1, "isfriend": 0, "isfamily": 0 },
      { "id": "36648278251", "owner": "61318846@N03", "secret": "4b861f2933", "server": "4439", "farm": 5, "title": "View of the Kuang Si Falls", "ispublic": 1, "isfriend": 0, "isfamily": 0 },
      { "id": "36636785211", "owner": "61318846@N03", "secret": "6d65d89c9a", "server": "4400", "farm": 5, "title": "Experimental LXIV", "ispublic": 1, "isfriend": 0, "isfamily": 0 }
    ] }, "stat": "ok" }